{
"lang":"en",
"ver":1,
"assets":[
["livebal/updated","Updated:"],
["livebal/inprogress","Payout in progress"],
["livebal/prop","Proportional:"],
["livebal/cont/donations","Donations"],
["livebal/cont/defname","Contribution"],
["livebal/cont/each/value/max","$$VALUE$$ of $$MAX$$ max"],
["livebal/cont/each/value/normal","$$VALUE$$"],
["livebal/cont/each/count/max","each of $$MAX$$ max"],
["livebal/cont/each/count/normal","each"],
["livebal/cont/randdrop/value/max","$$VALUE$$ of $$MAX$$ max"],
["livebal/cont/randdrop/value/normal","$$VALUE$$"],
["livebal/cont/randdrop/count/max","random folders of $$MAX$$ max"],
["livebal/cont/randdrop/count/normal","random folders"],
["livebal/cont/fee","Est. Fee"],
["livebal/cont/total","Total"],
["livebal/cont/additionally","Additionally:"],
["liveteam/active","Active Members:"],
["liveteam/teamrank","Team Rank:"],
["liveteam/teamrank/week","week"],
["liveteam/teamrank/day","day"],
["liveteam/wus","Work Units:"],
["liveteam/points","Points:"],
["liveteam/points/day","day"],
["contad/defname","Contribution"],
["contad/none","(none)"],
["contad/default","$$VALUE$$&nbsp;$$UNIT$$"],
["contad/perc","$$VALUE$$%&nbsp;$$UNIT$$"],
["contad/perc/tot","$$VALUE$$% with $$VALUE_MAX$$&nbsp;$$UNIT$$ max"],
["contad/each","$$VALUE$$&nbsp;$$UNIT$$ each"],
["contad/each/cnt","$$VALUE$$&nbsp;$$UNIT$$ each with $$VALUE_MAX$$&nbsp;$$UNIT$$ max"],
["contad/each/tot","$$VALUE$$&nbsp;$$UNIT$$ each of $$COUNT_MAX$$ max"],
["contad/each/tot+cnt","$$VALUE$$&nbsp;$$UNIT$$ each of $$COUNT_MAX$$ max with $$VALUE_MAX$$&nbsp;$$UNIT$$ max"],
["contad/prop","$$VALUE$$&nbsp;$$UNIT$$ proportionally"],
["contad/prop/cnt","$$VALUE$$&nbsp;$$UNIT$$ proportionally of $$COUNT_MAX$$ max"],
["contad/randdrop","$$VALUE$$&nbsp;$$UNIT$$ random folders"],
["contad/randdrop/tot","$$VALUE$$&nbsp;$$UNIT$$ random folders with $$VALUE_MAX$$&nbsp;$$UNIT$$ max"],
["contad/randdrop/cnt","$$VALUE$$&nbsp;$$UNIT$$ random folders of $$COUNT_MAX$$ max"],
["contad/randdrop/tot+cnt","$$VALUE$$&nbsp;$$UNIT$$ random folders of $$COUNT_MAX$$ max with $$VALUE_MAX$$&nbsp;$$UNIT$$ max"],
["contad/flat","$$VALUE$$&nbsp;$$UNIT$$"],
["contad/flat/cnt","$$VALUE$$&nbsp;$$UNIT$$ of $$COUNT_MAX$$ max"],
["contad/all","$$VALUE$$&nbsp;$$UNIT$$"],
["contad/all/cnt","$$VALUE$$&nbsp;$$UNIT$$ of $$COUNT_MAX$$ max"],
["histchart/reward_market/title","Compare to historic market values"],
["histchart/reward_market/label","Reward Display:"],
["histchart/mode_summary/tab", "Summary"],
["histchart/mode_points/tab","Point Details"],
["histchart/mode_rewards/tab","Reward Details"],
["histchart/range/0","Maximum"],
["histchart/range/1","Three Years"],
["histchart/range/2","One Year"],
["histchart/range/3","Six Months"],
["histchart/range/4","Three Months"],
["histchart/range/5","One Month"],
["histchart/summary/title", "Summary"],
["histchart/points/title", "Points Folded"],
["histchart/reward/title", "$$BRAND_UNIT$$ Rewarded"],
["histchart/reward/title/altunit", "$$ALT_UNIT$$ value of $$BRAND_UNIT$$ Rewarded"],
["histchart/summary/reward", "$$ALT_UNIT$$ Value of Reward"],
["histchart/summary/points", "Points Folded"],
["histchart/summary/folders", "Folders Rewarded"],
["histchart/reward/reward", "Total Reward"],
["histchart/reward/avg", "Avg Reward"],
["histchart/reward/max", "Max Reward"],
["histchart/points/points", "Total Points"],
["histchart/points/avg", "Avg Points"],
["histchart/points/max", "Max Points"],
["histchart/summary/scale/left", "Points"],
["histchart/summary/scale/right", "Folders"],
["histchart/details/scale/left", "Total"],
["histchart/details/scale/right", "Avg / Max"],
["historydata/status/norounds", "(No round history found)"],
["historydata/status/loading", "Loading round history data..."],
["historydata/txid/error", "[error]"],
["historydata/txid/notfound", "[not found]"],
["historydata/txid/none", "[none]"],
["historydata/txid/stored", "[stored]"],
["historydata/worker/notfound", "[not found]"],
["historydata/updated", "Updated: "],
["historydata/page/next", "Next"],
["historydata/page/prev", "Prev"],
["historydata/round/comment", "Comment"],
["historydata/round/date/polled", "Points polled"],
["historydata/round/date/reward", "Rewarded"],
["historydata/round/points", "Total Points"],
["historydata/round/rewards", "Total Rewards"],
["historydata/round/workers", "Rewarded Folders"],
["historydata/round/txid", "Payment Transaction"],
["historydata/round/market/title", "Market History"],
["historydata/round/market/select", "$$BRAND_UNIT$$ value on "],
["historydata/contrib/th/title", "Title"],
["historydata/contrib/th/type", "Type"],
["historydata/contrib/th/total", "Total $$BRAND_UNIT$$"],
["historydata/contrib/th/count", "Count"],
["historydata/roundwork/title", "Folder Rewards"],
["historydata/roundwork/showidle", "Show idle folders"],
["historydata/roundwork/showzero", "Show un-rewarded folders"],
["historydata/roundwork/th/address", "Address"],
["historydata/roundwork/th/points", "Points"],
["historydata/roundwork/th/reward", "Rewarded $$BRAND_UNIT$$"],
["historydata/roundwork/th/txid", "Transaction ID"],
["historydata/rowtitle/min", "minimum"],
["historydata/rowtitle/max", "maximum"],
["historydata/rowtitle/avg", "average"],
["historydata/csv/button", "CSV"],
["historydata/csv/th/address", "address"],
["historydata/csv/th/points", "points"],
["historydata/csv/th/rewarded", "rewarded"],
["historydata/csv/th/paid", "paid"],
["historydata/csv/th/txid", "txid"],
["historydata/csv/download", "Download CSV"],
["historydata/csv/filename", "round.csv"],
["folderhistory/searchbox/title", "Lookup folding username"],
["folderhistory/searchbox/button", "Search"],
["folderhistory/state/initial", "Search for your folding username ($$BRAND_NAME$$ address) to lookup your reward balance and payout history."],
["folderhistory/state/searching/title", "Searching"],
["folderhistory/state/searching/details", "Searching for &quot;<sup>$$QUERY$$</sup>&quot;..."],
["folderhistory/state/notfound/title", "Not Found"],
["folderhistory/state/notfound/details", "Searching for &quot;<sup>$$QUERY$$</sup>&quot;..."],
["folderhistory/state/loading/title", "Folder History"],
["folderhistory/state/loading/query", "Found &quot;<sup>$$QUERY$$</sup>&quot;"],
["folderhistory/state/loading/details", "Loading..."],
["folderhistory/state/loadfail/title", "Folder History"],
["folderhistory/state/loadfail/query", "Found &quot;<sup>$$QUERY$$</sup>&quot;"],
["folderhistory/state/loadfail/details", "Failed to load."],
["folderhistory/result/title/valid", "Folder: ($$ID$$) $$NAME$$ (valid address)"],
["folderhistory/result/title/invalid", "Folder: ($$ID$$) $$NAME$$ (not a valid address)"],
["folderhistory/result/balance", "Reward Balance: $$VALUE$$ $$BRAND_UNIT$$"],
["folderhistory/result/nohistory", "No reward history."],
["folderhistory/result/baddate", "????"],
["folderhistory/result/error", "(error detected)"],
["folderhistory/txid/error", "[error]"],
["folderhistory/txid/notfound", "[not found]"],
["folderhistory/result/th/date", "Date"],
["folderhistory/result/th/payid", "ID"],
["folderhistory/result/th/reward", "Reward $$BRAND_UNIT$$"],
["folderhistory/result/th/status", "Status"],
["folderhistory/result/status/storedpaid", "stored, later paid by ID $$PAYID$$ on $$DATE$$"],
["folderhistory/result/status/forfeit", "stored (not paid), later forfeited on $$DATE$$"],
["folderhistory/result/status/stored", "stored (not paid)"],
["folderhistory/result/status/paid","paid, txid: $$TXID$$"],
["folderhistory/result/status/paidwithstored","paid total $$TOTALPAY$$ $$BRAND_UNIT$$, txid: $$TXID$$"]
]}
